<?xml version="1.0" encoding="utf-8"?>
<!-- Generator: Adobe Illustrator 15.1.0, SVG Export Plug-In . SVG Version: 6.00 Build 0)  -->
<!DOCTYPE svg PUBLIC "-//W3C//DTD SVG 1.1//EN" "http://www.w3.org/Graphics/SVG/1.1/DTD/svg11.dtd">
<svg version="1.1" id="Layer_1" xmlns="http://www.w3.org/2000/svg" xmlns:xlink="http://www.w3.org/1999/xlink" x="0px" y="0px"
	 width="675px" height="164px" viewBox="0 0 675 164" style="enable-background:new 0 0 675 164;" xml:space="preserve">
<g>
	<path d="M557.999,36.12c-29.823,0-54,24.177-54,54s24.177,54,54,54c9.84,0,19.056-2.645,27-7.242v7.242h27v-27v-9v-18
		C611.999,60.297,587.822,36.12,557.999,36.12z M557.999,117.12c-14.912,0-27-12.088-27-27s12.088-27,27-27s27,12.088,27,27
		S572.911,117.12,557.999,117.12z"/>
	<polygon points="467.999,99.12 467.999,144.12 494.999,144.12 494.999,117.12 494.999,99.12 494.999,0.12 467.999,0.12 	"/>
	<path d="M674.999,117.12c-14.912,0-27-12.088-27-27v-27h9h18v-27h-9h-18v-36h-27v27v9v54c0,0.857,0.025,1.709,0.064,2.558
		c0.012,0.27,0.033,0.537,0.051,0.806c0.035,0.584,0.078,1.164,0.132,1.742c0.028,0.305,0.062,0.606,0.095,0.908
		c0.061,0.555,0.132,1.104,0.209,1.652c0.042,0.291,0.082,0.582,0.127,0.871c0.1,0.621,0.211,1.238,0.331,1.852
		c0.039,0.2,0.071,0.401,0.112,0.6c0.166,0.802,0.35,1.596,0.551,2.384c0.056,0.22,0.121,0.437,0.18,0.655
		c0.152,0.571,0.313,1.141,0.484,1.704c0.088,0.294,0.184,0.584,0.277,0.876c0.158,0.49,0.322,0.977,0.494,1.461
		c0.107,0.3,0.215,0.6,0.326,0.896c0.184,0.488,0.376,0.971,0.572,1.453c0.111,0.271,0.219,0.545,0.334,0.814
		c0.281,0.655,0.574,1.305,0.88,1.945c0.104,0.221,0.214,0.437,0.321,0.654c0.274,0.558,0.555,1.111,0.848,1.657
		c0.158,0.292,0.322,0.579,0.484,0.869c0.228,0.405,0.457,0.809,0.694,1.207c0.185,0.31,0.372,0.615,0.562,0.921
		c0.232,0.373,0.471,0.743,0.713,1.111c0.199,0.304,0.397,0.607,0.604,0.906c0.256,0.375,0.522,0.743,0.789,1.111
		c0.2,0.276,0.396,0.558,0.602,0.83c0.438,0.584,0.891,1.158,1.353,1.723c0.247,0.302,0.505,0.596,0.759,0.893
		s0.509,0.596,0.77,0.889c0.277,0.311,0.562,0.615,0.846,0.92c0.249,0.266,0.5,0.529,0.754,0.791
		c0.299,0.307,0.602,0.611,0.906,0.912c0.247,0.241,0.499,0.478,0.75,0.715c0.323,0.304,0.645,0.609,0.975,0.906
		c0.207,0.186,0.42,0.363,0.629,0.545c0.699,0.608,1.414,1.198,2.144,1.771c0.212,0.167,0.421,0.337,0.636,0.499
		c0.383,0.292,0.773,0.573,1.166,0.854c0.238,0.173,0.479,0.345,0.723,0.514c0.395,0.274,0.795,0.544,1.198,0.808
		c0.24,0.158,0.483,0.313,0.726,0.467c0.42,0.266,0.842,0.529,1.269,0.783c0.198,0.118,0.401,0.23,0.602,0.346
		c1.532,0.885,3.11,1.695,4.731,2.43c0.218,0.098,0.434,0.199,0.651,0.295c0.475,0.207,0.954,0.404,1.435,0.598
		c0.246,0.099,0.492,0.195,0.738,0.291c0.484,0.187,0.972,0.369,1.463,0.541c0.231,0.082,0.465,0.158,0.698,0.237
		c0.52,0.175,1.038,0.349,1.565,0.509c4.963,1.504,10.226,2.32,15.68,2.32l0.002-0.001V117.12H674.999z"/>
	<path d="M404.999,36.12c-29.823,0-54,24.177-54,54v36v37.76l27-27v-0.002c7.944,4.598,17.16,7.242,27,7.242
		c29.823,0,54-24.177,54-54S434.822,36.12,404.999,36.12z M404.999,117.12c-14.912,0-27-12.088-27-27s12.088-27,27-27
		s27,12.088,27,27S419.911,117.12,404.999,117.12z"/>
	<path d="M287.999,36.12c-29.823,0-54,24.177-54,54s24.177,54,54,54s54-24.177,54-54S317.822,36.12,287.999,36.12z M287.999,135.12
		c-24.854,0-45-20.147-45-45s20.146-45,45-45s45,20.147,45,45S312.853,135.12,287.999,135.12z"/>
	<path d="M53.999,36.12c-29.823,0-54,24.177-54,54s24.177,54,54,54c18.787,0,35.326-9.6,45-24.155v24.155h9v-54
		C107.999,60.297,83.822,36.12,53.999,36.12z M53.999,135.12c-24.854,0-45-20.147-45-45s20.146-45,45-45s45,20.147,45,45
		S78.853,135.12,53.999,135.12z"/>
	<path d="M179.999,108.12c0,14.912-12.088,27-27,27s-27-12.088-27-27v-72h-9v72c0,19.883,16.117,36,36,36s36-16.117,36-36v-72h-9
		V108.12z"/>
	<path d="M206.999,108.12v-54h27v-9h-27v-45h-9v108c0,19.883,16.117,36,36,36v-9C219.087,135.12,206.999,123.032,206.999,108.12z"/>
</g>
</svg>
